Simulation-based inference review & Sampling distributions
…
---

## Sampling distribution

```r
sampling <- norm_pop %>%
  rep_sample_n(size = 50, replace = TRUE, reps = 1000) %>%
  group_by(replicate) %>%
  summarise(xbar = mean(x))
sampling
```

```
## # A tibble: 1,000 x 2
##    replicate  xbar
##        <int> <dbl>
##  1         1  19.4
##  2         2  20.9
##  3         3  20.4
##  4         4  19.5
##  5         5  19.9
##  6         6  19.6
##  7         7  19.8
##  8         8  20.4
##  9         9  20.4
## 10        10  19.4
## # … with 990 more rows
```
…
