…
# put it all together
bind_rows(relfreqD, relfreqE, relfreqF, relfreqG, relfreqH, relfreqI, relfreqJ) %>%
 select(-n)
```

    ## # A tibble: 35 x 3
    ##    cut       color rel_freq
    ##    <ord>     <chr>    <dbl>
    ##  1 Fair      D       0.0241
    ##  2 Good      D       0.0977
    ##  3 Very Good D       0.223 
    ##  4 Premium   D       0.237 
    ##  5 Ideal     D       0.418 
    ##  6 Fair      E       0.0229
    ##  7 Good      E       0.0952
    ##  8 Very Good E       0.245 
    ##  9 Premium   E       0.239 
    ## 10 Ideal     E       0.398 
    ## # … with 25 more rows
…
