Data and visualization
…
# Visualizing Star Wars

---

## Dataset terminology

.small[

```r
countries_footprint
```

```
## # A tibble: 188 x 14
##    Country Region Population   HDI    GDP Cropland Grazing Forest Carbon  Fish
##    <chr>   <chr>       <dbl> <dbl>  <dbl>    <dbl>   <dbl>  <dbl>  <dbl> <dbl>
##  1 Afghan… Middl…      29.8   0.46   615.     0.3     0.2   0.08    0.18  0   
##  2 Albania North…       3.16  0.73  4534.     0.78    0.22  0.25    0.87  0.02
##  3 Algeria Africa      38.5   0.73  5431.     0.6     0.16  0.17    1.14  0.01
##  4 Angola  Africa      20.8   0.52  4666.     0.33    0.15  0.12    0.2   0.09
##  5 Antigu… Latin…       0.09  0.78 13205.    NA      NA    NA      NA    NA   
##  6 Argent… Latin…      41.1   0.83 13540      0.78    0.79  0.290   1.08  0.1 
##  7 Armenia Middl…       2.97  0.73  3426.     0.74    0.18  0.34    0.89  0.01
##  8 Aruba   Latin…       0.1  NA       NA     NA      NA    NA      NA    NA   
##  9 Austra… Asia-…      23.0   0.93 66604.     2.68    0.63  0.89    4.85  0.11
## 10 Austria Europ…       8.46  0.88 51274.     0.82    0.27  0.63    4.14  0.06
## # … with 178 more rows, and 4 more variables: Total <dbl>,
## #   EarthsRequired <dbl>, CountriesRequired <dbl>, DataQuality <chr>
```
…
