Data and Vizualization
…
- .vocab[spread:] range (`range`), standard deviation (`sd`), inter-quartile range (`IQR`)

- .vocab[outliers:] observations outside of the usual pattern

---

## Diamonds data 

```r
diamonds
```

```
## # A tibble: 53,940 x 11
##    carat cut   color clarity depth table price     x     y     z price_per_carat
##    <dbl> <ord> <ord> <ord>   <dbl> <dbl> <int> <dbl> <dbl> <dbl>           <dbl>
##  1  0.23 Ideal E     SI2      61.5    55   326  3.95  3.98  2.43           1417.
##  2  0.21 Prem… E     SI1      59.8    61   326  3.89  3.84  2.31           1552.
##  3  0.23 Good  E     VS1      56.9    65   327  4.05  4.07  2.31           1422.
##  4  0.29 Prem… I     VS2      62.4    58   334  4.2   4.23  2.63           1152.
##  5  0.31 Good  J     SI2      63.3    58   335  4.34  4.35  2.75           1081.
##  6  0.24 Very… J     VVS2     62.8    57   336  3.94  3.96  2.48           1400 
##  7  0.24 Very… I     VVS1     62.3    57   336  3.95  3.98  2.47           1400 
##  8  0.26 Very… H     SI1      61.9    55   337  4.07  4.11  2.53           1296.
##  9  0.22 Fair  E     VS2      65.1    61   337  3.87  3.78  2.49           1532.
## 10  0.23 Very… H     VS1      59.4    61   338  4     4.05  2.39           1470.
## # … with 53,930 more rows
```
…
---

class: center, middle

# Why do we visualize?

---

## Data: `datasaurus_dozen`

Below is an excerpt from the `datasaurus_dozen` dataset:

```
## # A tibble: 142 x 8
##    away_x away_y bullseye_x bullseye_y circle_x circle_y dino_x dino_y
##     <dbl>  <dbl>      <dbl>      <dbl>    <dbl>    <dbl>  <dbl>  <dbl>
##  1   32.3   61.4       51.2       83.3     56.0     79.3   55.4   97.2
##  2   53.4   26.2       59.0       85.5     50.0     79.0   51.5   96.0
##  3   63.9   30.8       51.9       85.8     51.3     82.4   46.2   94.5
##  4   70.3   82.5       48.2       85.0     51.2     79.2   42.8   91.4
##  5   34.1   45.7       41.7       84.0     44.4     78.2   40.8   88.3
##  6   67.7   37.1       37.9       82.6     45.0     77.9   38.7   84.9
##  7   53.3   97.5       39.5       80.8     48.6     78.8   35.6   79.9
##  8   63.5   25.1       39.6       82.7     42.1     76.9   33.1   77.6
##  9   68.0   81.0       34.8       80.0     41.0     76.4   29.0   74.5
## 10   67.4   29.7       27.6       72.8     34.6     72.7   26.2   71.4
## # … with 132 more rows
```
…
