Web scraping
…
### Working with tibbles in pipelines

- Recall the [cat lovers](https://www2.stat.duke.edu/courses/Fall19/sta199.001/appex/05c-cat-lovers.html) data set

```
## Parsed with column specification:
## cols(
##   name = col_character(),
##   number_of_cats = col_character(),
##   handedness = col_character()
## )
```

```
## # A tibble: 60 x 3
##    name           number_of_cats handedness
##    <chr>                   <dbl> <chr>     
##  1 Bernice Warren              0 left      
##  2 Woodrow Stone               0 left      
##  3 Willie Bass                 1 left      
##  4 Tyrone Estrada              3 left      
##  5 Alex Daniels                3 left      
##  6 Jane Bates                  2 left      
##  7 Latoya Simpson              1 left      
##  8 Darin Woods                 1 left      
##  9 Agnes Cobb                  0 left      
## 10 Tabitha Grant               0 left      
## # … with 50 more rows
```
…
