Text analysis
…
---

## Tokens

- A token is a meaningful unit of text. For us, that will be a single word
- Tokenizing is simply splitting a body of text into tokens, which can achieved using the function `unnest_tokens()`

```r
tidy_text <- text_df %>%
  unnest_tokens(word, text)
tidy_text
```

```
## # A tibble: 35 x 2
##     line word     
##    <int> <chr>    
##  1     1 thus     
##  2     1 far      
##  3     1 in       
##  4     1 class    
##  5     1 you      
##  6     1 have     
##  7     1 been     
##  8     1 employing
##  9     1 tidy     
## 10     1 data     
## # … with 25 more rows
```
…
## Customize stop words

- For this analysis, we should consider removing the word 'trump' as a word with positive connotation
- To do so, we can make a custom list of stop-words:

```r
my_stop_words <- tibble(word = c("trump"), lexicon = c("custom"))
custom_stop_words <- bind_rows(my_stop_words, stop_words)
custom_stop_words 
```

```
## # A tibble: 1,150 x 2
##    word        lexicon
##    <chr>       <chr>  
##  1 trump       custom 
##  2 a           SMART  
##  3 a's         SMART  
##  4 able        SMART  
##  5 about       SMART  
##  6 above       SMART  
##  7 according   SMART  
##  8 accordingly SMART  
##  9 across      SMART  
## 10 actually    SMART  
## # … with 1,140 more rows
```
…
- Equal odds corresponds to OR = 1, which corresponds to log(OR) = 0

- If candidate A uses the word with higher probability, then log(OR) > 0

- We use the following approximation in case a candidate does not use the word at all:

$$ \log \text{OR}_{A:B}(word) \approx \log \left( \dfrac{(n+1)_A / (total+1)_A}{(n+1)_B / (total+1)_B}\right)$$
---

## Word usage: equally likely

Log-odds ratios for Biden versus Warren displayed in ascending order of absolute value of log-odds ratio

```
## # A tibble: 721 x 2
##    word       logratio
##    <chr>         <dbl>
##  1 funding    -0.00461
##  2 support    -0.00647
##  3 climate    -0.00707
##  4 actions     0.0137 
##  5 agree       0.0137 
##  6 attacks     0.0137 
##  7 commitment  0.0137 
##  8 supremacy   0.0137 
##  9 love       -0.0147 
## 10 millions   -0.0175 
## # … with 711 more rows
```
…
