UN Votes
…
library(unvotes)
library(tidyverse)
library(lubridate)
library(DT)

Data

We will work with three data sets: un_roll_calls, un_roll_call_issues, and un_votes. Each data set contains a variable called rcid, the roll call id, which can be used to join the data sets with one another.

The un_votes data set provides information on the voting history of the United Nations General Assembly. It contains one row for each country/vote pair.

un_votes

## # A tibble: 869,937 x 4
##     rcid country            country_code vote 
##    <dbl> <chr>              <chr>        <fct>
##  1     3 United States      US           yes  
##  2     3 Canada             CA           no   
##  3     3 Cuba               CU           yes  
##  4     3 Haiti              HT           yes  
##  5     3 Dominican Republic DO           yes  
##  6     3 Mexico             MX           yes  
##  7     3 Guatemala          GT           yes  
##  8     3 Honduras           HN           yes  
##  9     3 El Salvador        SV           yes  
## 10     3 Nicaragua          NI           yes  
## #  with 869,927 more rows

The un_roll_calls data set contains information on each roll call vote of the United Nations General Assembly.

un_roll_calls

## # A tibble: 6,202 x 9
##     rcid session importantvote date       unres  amend  para short   descr      
##    <int>   <dbl>         <int> <date>     <chr>  <int> <int> <chr>   <chr>      
##  1     3       1             0 1946-01-01 R/1/66     1     0 AMENDM TO ADOPT A
##  2     4       1             0 1946-01-02 R/1/79     0     0 SECURI TO ADOPT A
##  3     5       1             0 1946-01-04 R/1/98     0     0 VOTING "TO ADOPT 
##  4     6       1             0 1946-01-04 R/1/1     0     0 DECLAR TO ADOPT A
##  5     7       1             0 1946-01-02 R/1/2     1     0 GENERA "TO ADOPT 
##  6     8       1             0 1946-01-05 R/1/2     1     0 ECOSOC TO ADOPT A
##  7     9       1             0 1946-02-05 R/1/3     0     0 POST-W TO OPEN TH
##  8    10       1             0 1946-02-05 R/1/3     1     1 U.N. M "TO ADOPT 
##  9    11       1             0 1946-02-05 R/1/3     0     0 TRUSTE TO ADOPT D
## 10    12       1             0 1946-02-06 R/1/3     1     1 COUNCI TO ADOPT P
## #  with 6,192 more rows

The un_roll_call_issues data set contains issue classifications of roll call votes of the United Nations General Assembly. There are many votes that have no issue classification, and some are classified under more than one issue.

un_roll_call_issues

## # A tibble: 5,745 x 3
##     rcid short_name issue               
##    <int> <chr>      <fct>               
##  1    77 me         Palestinian conflict
##  2  9001 me         Palestinian conflict
##  3  9002 me         Palestinian conflict
##  4  9003 me         Palestinian conflict
##  5  9004 me         Palestinian conflict
##  6  9005 me         Palestinian conflict
##  7  9006 me         Palestinian conflict
##  8   128 me         Palestinian conflict
##  9   129 me         Palestinian conflict
## 10   130 me         Palestinian conflict
## #  with 5,735 more rows
…
